id	id_prop	alignment	comment	depth	thread_id	last_comment_in_thread	upvote	downvote	Topic	lan	time	label
comment_5252	559	None	El respeto a los derechos humanos va antes que nada. No se puede denigrar a los inmigrantes ilegales, ni se les puede negar su derecho al asilo y refugio. Lo que necesitamos es una política migratoria común y consensuada que permita la llegada legal de las personas y que a su vez resuelva de manera eficaz y respetando los derechos humanos la llegada ilegal de personas. Necesitamos también hacer un mayor esfuerzo e invertir en mejores y más eficientes políticas de integración de las personas migrantes en el tejido social europeo.	0.0	comment_5252	True	2	1	Migration	es	2021-05-09T19:37:37+02:00	Against
comment_15135	9576	None	"    Desde el IES Pérez Galdós, consideramos que se debe hacer de la industria europea un sector líder a nivel mundial para seguir estando a la cabeza del cambio y, a la vez, alcanzar todos los objetivos del Pacto Verde Europeo.
Estas tendencias definen nuestra actual revolución industrial: los cambios rápidos e integrales en tecnología están transformando nuestra economía. Esta revolución conlleva desafíos que, a su vez, suponen oportunidades. Por ejemplo, aunque la adaptación a una economía eficiente en materia de energía puede suponer un desafío, las actividades especializadas en torno a la remodelación energética suponen en la actualidad dos tercios de los puestos de trabajo totales del sector de la construcción. Esto muestra que los retos pueden afrontarse de manera positiva. Las fábricas del mañana utilizarán procesos altamente eficientes en lo que a energía y materiales se refiere, emplearán materiales renovables y reciclados, y adoptarán modelos cada vez más sostenibles."	0.0	comment_15135	True	0	0	GreenDeal	es	2021-05-19T12:19:07+02:00	In favor
comment_214468	1024	None	La Obsolescencia programada en aparatos electrónicos y en general en toda clase de productos debería penalizarse por parte de los gobiernos. Ya que produce demasiados residuos, desperdicia materiales muy escasos y preciados. Aunque se hacen esfuerzos para reciclar, muchas veces multitud de productos de gran valor son desperdiciados.	0.0	comment_214468	True	0	0	GreenDeal	es	2022-02-14T22:28:24+01:00	In favor
comment_43996	1826	None	También es importante que los precios de viajar en tren a nivel internacional sean más asequibles para garantizar la accesibilidad con la que más personas puedan moverse por Europa (directivas sobre las tarifas a nivel europeo, opciones low cost, acuerdos entre empresas ferroviarias...), y también que se promuevan más campañas de comunicación sobre las posibilidades de viajar en tren vía televisión y redes sociales.	0.0	comment_43996	True	0	0	GreenDeal	es	2021-06-25T13:41:47+02:00	In favor
comment_178169	178201	None	"Cambio climático
Es necesario dejar de focalizar esfuerzos en reducir el uso del coche en la ciudad y empezar a enfocarlos en reducir el uso del coche en trayectos largos, que es donde hay la mayor pérdida energética. Ya es hora de mejorar las conexiones entre ciudades alejadas con un transporte público rápido y barato para que la gente pueda aprovecharlo."	0.0	comment_178169	True	0	0	GreenDeal	es	2021-12-17T13:07:20+01:00	In favor
comment_237404	270802	None	Una gran idea, de las que hacen falta 😀 	0.0	comment_237404	True	0	0	GreenDeal	es	2022-03-03T16:50:08+01:00	In favor
comment_146884	60	None	Bueno dado que te tomas la maravillosa molestia de contestar y lo agradezco te escribiré mi opinión. Recientemente buscando un empleo que ni en fantasías y no por falta de capacidad sino por debilidad mental y distorsiones podría yo realizar, me encontré un trabajo como socióloga de jefa de equipo de un proyecto de plantaciones transgénicas a gran escala que estaban intentando producir carne en vegetales para la nueva revolución industrial que se avecina. a su vez a partir de células madre es posible, aunque muy caro crear carne artificial...creo que ese es el camino. a corto plazo tu propuesta pudiera ser buena pero no es más que una demanda capitalista para que no les hagamos gastar tanto en alimentarnos y estemos contentos con hormonas y con alguna que otra lechuguita. yo exijo unos alimentos justos con masivos campos de ganadería extensiva. ¿el agua? energías renovables e inversión. antes de que se consuma viviremos en una Matriohska Brain.	0.0	comment_146884	True	0	0	GreenDeal	es	2021-11-15T04:16:48+01:00	Against
comment_17955	12277	None	Yo creo que tenemos derecho a estar, por lo menos, informados del carbono que se ha emitido al fabricar y transportar ese producto. No podemos ser totalmente conscientes y responsables si no disponemos de toda la información. 	0.0		False	1	0	GreenDeal	es	2021-05-22T23:55:25+02:00	In favor
comment_136621	139459	None	añado como resaltable que el 40% de la comida es tirada directamente por los supermercados antes que ofrecerla gratuitamente	0.0	comment_136621	True	0	0	Health	es	2021-11-06T09:54:44+01:00	In favor
comment_151473	139459	None	"llamo vecindario núcleo a vivir con quienes queramos mediante una fundación de 15 años al estilo humanbrainproject para que entonces se pueda con individuo núcleo reproducir la identidad de las personas que queremos en nuestra  vida para su bien a partir de nuestra memoria (ancianos, muertos antiguos amigos y amores) total la Europa que propongo en su primera fase es industrial,.
Sustituyendo las redes sociales por otras de tamaño medio que preserven la intimidad y no coaccionen estas serían públicas y con un monitor por lo público. El  administrador del tiempo las crearía a nivel europeo... así como las quedadas y los grupos del vecindario ( pandillas) procurando que aunque sea invitar a cenar, un café y ver el partido o el tiempo suficiente para que los niños de ambas familias jueguen nadie quedase excluido de la sociedad ¿un concierto? ¿visita al zoo o a un museo? Quedar para coser o tocar la guitarra?  "	0.0	comment_151473	True	0	0	Health	es	2021-11-18T13:16:38+01:00	Other
comment_151570	139459	None	"las redes sociales sin ánimo de estigmatizar a nadie serían medianos grupos de amigos según intereses... Equipos de futbol hípica, adiestramiento de tu cachorro evolucionando hasta su cuidado como adulto, astrología, admiradores de grupos de música o escritores amateurs etc.
yo propongo también crear centros de selección de personal comarcales con pruebas de selección repetidas cada 3 años que duren 4 semanas... con mes laboral remunerado por el estado para exclusivamente los asalariados y autobús gratis celebradas al iniciar estación del año. pruebas inductivas, donde primero se otorguen los primeros puestos sin hacer notoriedad a la sobrecualificación pero sí a la experiencia en estos puestos y luego se vaya sustituyendo y ascendiendo según la puntuación para todos guardada en las bases de datos y borrada para cada individuo a los 4 años. a veces con ayuda de la inteligencia artificial pero siguiendo estrictas normas."	0.0	comment_151570	True	0	0	Health	es	2021-11-18T13:40:56+01:00	Other
comment_61053	129	None	Me gusta tu propuesta. Creo, en primer lugar, que la tarjeta sanitaria europea debería obtenerse nada más nacer sólo por pertenecer a un Estado miembro de la UE. En segundo lugar, en el caso de establecer un precio por asistencia médica o por compra de medicamentos fuera de nuestro país, debería haber un precio establecido y reglado que fuera igual independientemente de dónde te encontraras. Y lo mismo por ingresos hospitalarios e intervenciones quirúrgicas. O, en última instancia, no pagar sólo por ser de la UE. Como por ejemplo en el caso de los países nórdicos con los estudios universitarios. Soy española, y si quiero estudiar en una universidad de  Suecia no pago nada al pertenecer a la UE. Quizá esta última propuesta sea más utópica y difícil de implantar, pero sí considero que debería haber un precio único. 	0.0	comment_61053	True	0	0	Health	es	2021-07-22T20:24:33+02:00	In favor
comment_23416	19834	None	"Creo que esta ""idea"" propuesta es muy importante y necesaria de valorar seriamente.
La estrategia de eliminación ha sido recomendada en repetidas ocasiones por la OMS, y hay diversos estudios  importantes que demuestran los beneficios de la misma.
https://www.thelancet.com/journals/lancet/article/PIIS0140-6736(21)00978-8/fulltext
https://www.institutmolinari.org/2021/04/03/the-zero-covid-strategy-protects-people-and-economies-more-effectively/"	0.0	comment_23416	True	0	0	Health	es	2021-05-31T00:49:15+02:00	In favor
comment_133222	139131	None	"Totalmente de acuerdo. Lenin decía que el salario de una persona no puede ser más de 4 veces el de otra. Yo propondría para Europa 10 veces como máximo sea empresario o trabajador. Yo propondría en concierto con todos los profesionales de recursos humanos ( que pasarían a ser funcionarios públicos retribuidos por las empresas formados en responsabilidad social) para una economía de mercado crear un organigrama europeo planificado. Esto es todos los puestos de todas las empresas estarían en el organigrama con los manuales de organización y los convenios colectivos de cada empresa y puesto. Luego según unas reglas que tu puedes ver en mi propuesta ""el derecho de los marginados bla bla no me acuerdo"" se atribuirían los puestos nuevos de formación a cada individuo, los de experiencia y los de los individuos colocados se mantendrían pero no su salario cuando es demasiado bajo. los salarios incluidos el mogollón de futbolistas amateurs que hay en España...no creo que escaseen sería de "	0.0	comment_133222	True	0	0	Economy	es	2021-11-03T12:55:03+01:00	In favor
comment_112466	1806	None	El problema es que los ricos no suelen cobrar mediante un salario. Amancio Ortega no tiene un salario. Regular el salario afecta a clases medias y bajas. Me parece importante regularlo, y sobre todo por abajo, es decir, ¿cuál es la cantidad mínima para vivir dignamente? Y que nadie trabajando a jornada completa pueda cobrar menos. Con el resto hay que perseguir la ingeniería fiscal y prohibir su uso (algo que no se hace desde los gobiernos ni la UE).	0.0	comment_112466	True	0	0	Economy	es	2021-10-10T16:51:20+02:00	Other
comment_63070	7954	None	"Yo no creo que el salario universal sea buena idea.
Pero para dar una vivienda a todos y resolver el problema de la vivienda propongo:
Como resolver de una vez el problema de la vivienda.#comment_55689"	0.0	comment_63070	True	0	0	Economy	es	2021-07-27T18:28:55+02:00	Other
comment_33794	13835	None	Conviene  reflejar en el Parlamento Europeo un porcentaje de los presupuestos generales de los estados miembros deben ir para garantizar sanidad y educación publica si como en I+D. Si queremos garantizar una UE en la que todas y todos podamos vivir en condiciones y en el que no haya desigualdades, es obligatorio garantizar la calidad de vida de la gente trabajadora y esto se hace con proteccion social de los servicios publicos y con trabajo de calidad.	0.0		False	1	0	Economy	es	2021-06-14T10:53:48+02:00	In favor
comment_63066	20165	None	"La propuesta para resolver el problema de la vivienda esta en vincular salarios y rentas familiares a valores de la vivienda.
Y una valoración administrativa que permita cuantificar las necesidades sociales de vivienda.
Ver como:
Como resolver de una vez el problema de la vivienda.#comment_55689"	0.0	comment_63066	True	0	0	Economy	es	2021-07-27T18:16:15+02:00	Other
comment_177640	193612	None	"Pero según mi fórmula ( Ver mi idea ""el derecho de los marginados a"" y dejarse de iliberalizaciones y que cada cual obtenga injustamente en competencia con otros un mejor puesto debido a criterios de enchufe o superioridad de grupo) el 13% de los trabajos le añado debieran ser dados al 13 percentil inferior que más tiempo en el para hubiese  dentro de los requisitos básicos de selección ( habría unos básicos y otros minuciosos) hechos bien por los funcionarios de selección de personal del pueblo o distrito ( que al igual que los secretarios interventores de ayuntamiento en España serían seleccionados y no opositados a nivel nacional con destino primero a pueblos y después con ascenso de salarios si se quiere a ciudades) eliminando el sistema de oposiciones por uno de formación como inicio en el puesto...  también del quartil 25 percentil al más necesitado (familias numerosas, rentas de casa, hasta si tienen caballos que cuidar que se yo) combinándose ambos factores. "	0.0	comment_177640	True	0	0	Economy	es	2021-12-16T10:42:10+01:00	Other
comment_177674	193612	None	"Respecto a el derecho al trabajo pido lo siguiente: más teletrabajo, y para los minusválidos y los que no confían en si mismos fabricación de coches eléctricos automáticos sin carnet pagando sólo a partir del mes de trabajo mientras se tenga trabajo y devolviéndolo luego cuando se empieza a cobrar el desempleo si no se puede pagar. si pueden ser skycars con aparcamientos flotantes y toda la calle peatonal con carriles bicis ¿ demasiada inversión? PIensen en el ahorro de no tener que asfaltar.
También mi idea de prohibir la venta de viviendas excepto por un precio justo ( igual a la hipoteca) al erario público y obligar a la gente a alquilar después de la segunda casa al precio que puedan pagar los inquilinos desde 10 euros: 30% para el  estado. Para obtener luego una casa en propiedad una vez pagada una suma : posibilidad de cambiar de ciudad a través de Europa y de mejorar el salario y la suma también. 3D printer building."	0.0	comment_177674	True	0	0	Economy	es	2021-12-16T10:52:08+01:00	Other
comment_133618	138403	None	"No sólo hace falta un ministro de hacienda europeo... sino un gobierno real Europeo. Si lees mi propuesta sobre separación de poderes lo entenderás.
Poder  ejecutivo. La comisión. Cada comisario vendría a ser algo así como el ministro del gobierno de una Europa unida, no federal a pesar de la diferencia de lenguas ( leer mi propuesta sobre separación de poderes) y los funcionarios europeos serían no por oposición pues es una pérdida de tiempo y una quimera sino por fórmulas, reglas de selección fijas como las que yo he propuesto en otra idea llamada el derecho de los marginados etc. ( antes de tener prejuicios léela). No se desanime quien tiene una pobre media pues a los 10-15 años de la materia este aspecto seria sustituido por una prueba de conocimiento de las asignaturas de la carrera actualizadas para todos los trabajos relacionados con la carrera ( hablo en otra propuesta de una economía mixta en la que por reglas establecidas se cree un organigrama profesional con  manual de orga"	0.0	comment_133618	True	0	0	Economy	es	2021-11-03T15:06:12+01:00	In favor
comment_52142	235	None	"Buenas José Luis, opino que el punto más importante para el futuro de Europa es la educación. Más que algunos conceptos e ideas sobre habilidades para combatir la incertidumbre. ¿No sería necesario solucionar el problema de la educación de raíz? Los sistemas educativos de toda Europa, dando un giro completo hacia una nueva forma de sistema educativo, no más tener a los alumnos como robots-máquinas en una relación fría entre profesor-alumno.
Sino, tratar prioritariamente con atención una relación mediante el corazón entre profesor y alumno. Una verdadera educación, como bien decía Luigi Giussani se trata más de una conexión entre el profesor y los alumnos atendiendo a dudas existenciales y educando en inteligencia emocional, para combatir en su totalidad el virus que es la diferencia entre clases. Un sistema clasista que evalúa por notas, en vez de ayudar a cada individuo a fomentar su progreso, es deshumanizador. 
Educación en inteligencia emocional, derechos y conocimiento de leyes."	0.0	comment_52142	True	0	0	Economy	es	2021-07-08T15:49:50+02:00	Other
comment_46564	38877	None	"Pincha aquí:
Como resolver de una vez el problema de la vivienda.?locale=es
La solución esta en relacionar el cálculo de los valores de las viviendas con los salarios.
Nunca mas el valor de una vivienda en renta (el alquiler) o en venta podrá ser especulativo sino directamente relacionado con los salarios."	0.0		False	0	0	Economy	es	2021-06-30T18:30:26+02:00	Other
comment_126922	11325	None	"A ver si nos entendemos. Explícame porque has dejado todo muy confuso. ¿ tú estas proponiendo 200 euros o criptomonedad  por persona para gastar en empresas dentro de la comarca? Excelente idea. 
Lo siento pero me cuesta entenderte, "	0.0		False	0	0	Economy	es	2021-10-26T15:51:09+02:00	In favor
comment_137776	24190	None	La Unión Europea debe luchar fortísimamente contra los paraísos fiscales impulsando una política mundial que afecte desde el Facebook de Irlanda hasta las islas Cayman. si alguna vez llegamos a mi sueño y EU logra emular  a China  por medio de una emigración en cuotas de procedencia  que no convierta a Europa en musulmana. una emigración masiva se debería crear un único presupuesto y una única política fiscal así como un fuerte impuesto al dinero traído de bancos extranjeros desglosado por tipo de fiscalidad. También sugiero una única política de empleo y de vivienda.  Una economía mixta en donde se cree un organigrama laboral público para la industria privada y pública sin oposiciones y con puesto de formación imparciales ( desanimados, LGTI, marginados etc) asignados y prohibir la venta de vivienda no utilizada para ponerla toda según lo que se pueda pagar de alquiler en una mochila de movilidad intereuropea obteniendo al final una vivienda en propiedad móvil.	0.0	comment_137776	True	0	0	Economy	es	2021-11-07T07:41:30+01:00	In favor
comment_63072	3831	None	"Me parece una propuesta utópica por ser excesiva.
Yo te propongo algo mas moderado para resolver por lo menos el problema de la vivienda:
Como resolver de una vez el problema de la vivienda.#comment_55689"	0.0	comment_63072	True	0	0	Economy	es	2021-07-27T18:36:14+02:00	Against
comment_126820	838	None	"Yo soy minusválida y pensionista no contributiva con lo que no puedo salir de mi país y cobro una miseria. oigo voces y soy muy débil además de que tengo dyspraxia. se lenguas pero muestro preferencia por el español porque tengo errores en ellas. 
Creo que no sólo el sistema de pensiones sino el sistema de seguridad social debería ser único para la UE. Yo propongo crear la nueva China industrial con productos de gran calidad: inmigrantes... ¿ que quieren venir a trabajar en la industria aunque sólo el línea media conozca su lengua? que vengan= nueva China. tenemos potencial..... emisión de la moneda de la nada= inflación combatida con incremento del PIB una industria pública. siendo así para europeos en toda Europa renta mínima 600 euros individuo convívase con quien se conviva (dignidad) + 100 euros por hijo pareja pensiones no contributivas y mínimas 1200 y salario mínimo ( industrial) 1650... fortísimos aranceles al extranjero."	0.0	comment_126820	True	0	0	Economy	es	2021-10-26T15:13:17+02:00	Other
comment_126821	838	None	Emigrantes: que vengan aunque no trabajen son  consumidores pero para evitar abusos...7 años antes del permiso de residencia definitivo. y pocos  limites a los que reclamen un trabajo.... véase mi propuesta de crear un organigrama de la empresa pública y privada para Europa. Primero los europeos claro está pero llamo a una construcción pública masiva de industria.	0.0	comment_126821	True	0	0	Economy	es	2021-10-26T15:17:07+02:00	Other
comment_130813	137133	None	Muy buena idea. Yo no hablo ni inglés ni alemán ni francés. Si no se puede escribir en todos los idiomas de la UE, debería estar presente el esperanto	0.0	comment_130813	True	7	0	EUInTheWorld	es	2021-11-01T07:43:13+01:00	In favor
comment_139658	135	None	No comprendo como un estado se une a la Union Europea y no acepta el Euro como moneda. Sería similar a que no aceptara la bandera, el himno, la Constitución y, a pesar sed esto, fuera aceptado. Lease entre otros el Reino Unido.	0.0	comment_139658	True	0	0	EUInTheWorld	es	2021-11-08T19:25:52+01:00	In favor
comment_130681	123190	None	"Amigos,                                         Europa necesita es una Constitucion para  crear la Union Europea Federal primera videoconferencia con la Convencion de Ciudadanos el pasado 29 de octubre, se hablo de una transformacion del exito de la Union Europea, desde que en 1950 Schumann hizo la declaracion preparatoria que llevaria a la fundacion del MC (Mercado Comun) en 1957. Luego vino la CEE (Comunidad Economica Europea) y a principios de los años 90 se convirtio en la Union Europea. Y ahora estamos haciendo Historia con la futura FUE (Federacion Union Europea) 
La FAEF (Federal Alliance of European Federalists) ha empezado este proyecto convocando una Convencion de Ciudadanos para debatir y ratificar una Constitucion Federal para los Estados Unidos de Europa. Aqui el enlace de la Convencion:
https://www.faef.eu/en_gb/citizens-convention/
el proximo dia 06 de  noviembre a las 13.00 horas tenemos este evento:
https://futureu.europa.eu/processes/EUInTheWorld/f/17/meetings/70655"	0.0	comment_130681	True	0	0	EUInTheWorld	es	2021-10-31T19:30:27+01:00	In favor
comment_13993	9406	None	Es una excelente propuesta porque todos pensamos que la Unión Europea debe tener una sólida política de Defensa común. El fracaso del Tratado de la Comunidad Europea de Defensa permitió que nos conformáramos con la Unión Europea Occidental que era una organización intergubernamental propia de otra filosofía al proyecto de integración europea. Y ciertamente que vivimos bajo el paraguas de la OTAN hasta que el Presidente Trump nos vino con exigencias, en cierto modo, justificadas de que tomásemos en serio la contribución económica a la defensa europea.  El futuro de la Política de la Defensa será la Unión de los ejércitos en una única fuerza con posibilidad de intervenir en los escenarios donde sea preciso, para salvar vidas humanas, auxiliar en momentos de catástrofe y defender los valores y las libertades europeas, con un presupuesto acorde a su naturaleza continental. 	0.0	comment_13993	True	0	0	EUInTheWorld	es	2021-05-17T20:34:04+02:00	In favor
comment_47898	41119	None	Totalmente de acuerdo. Hay muchos prejuicios interesados contra el esperanto	0.0	comment_47898	True	10	0	ValuesRights	es	2021-07-02T22:53:46+02:00	In favor
comment_102268	42475	None	"También es necesario reafirmar y reconocer que los valores europeos y la construcción de la Unión Europea se ha realizado bajo el paraguas de la cristiandad. Y si me apuran asociarla a la misma, para que el culto cristiano sea protegido y promovido. Como lo es el del Islam con la construcción de Mezquitas y apoyo económico y de vivienda a esta comunidad.
Muchas gracias, un saludo."	0.0	comment_102268	True	0	0	ValuesRights	es	2021-09-30T02:38:31+02:00	In favor
comment_28219	189	None	Me gustaría pensar que la ue desea compartir su estima por los valores democráticos y los derechos humanos.  Pero la verdad es que la ue se formó en base al comercio del carbón.  No podemos imponer sanciones a otros países en base al beneficio económico que sacamos. ¿Cómo podríamos justificar sanciones a Rusia y mantener los acuerdos comerciales con China o Marruecos? ¿ acaso hay libertad en esos países? ¿no se violan ahí los derechos humanos? Y sin embargo defendemos esos acuerdos, para mantener nuestro nivel de vida. En la UE tenemos un problema moral entre la justicia y la economía. He propuesto una idea que consiste en debatir si es compatible el modelo económico actual y la justicia y los valores europeos. 	0.0		False	0	0	ValuesRights	es	2021-06-04T17:14:50+02:00	Other
comment_155002	134773	None	Iguales o diferentes, todos tenemos derecho a ser escuchados y a decidir, a ser ciudadanos y a que se nos respete.	0.0	comment_155002	True	0	0	ValuesRights	es	2021-11-21T19:00:32+01:00	In favor
comment_155168	134773	None	"We want more 
Pido a las Instituciones Europeas que den más visibilidad a las personas con síndrome de Down, que cuente con ellos, que nada ni nadie les prive de sus derechos.
Contad con ellos ♥️"	0.0	comment_155168	True	0	0	ValuesRights	es	2021-11-21T20:57:14+01:00	In favor
comment_155365	134773	None	La plena inclusión de la discapacidad es un reto importante que como sociedad debemos conseguir y para ello es importante el apoyo y compromiso de las instituciones europeas. Tod@s queremos más con un futuro inclusivo 100%	0.0	comment_155365	True	2	0	ValuesRights	es	2021-11-21T22:30:30+01:00	In favor
comment_155761	134773	None	"Queremos mas oportunidades para las personas con síndrome de down!
Son una parte fundamental en nuestra sociedad y deben poder ser capaces de desarrollarse como tal!"	0.0	comment_155761	True	2	0	ValuesRights	es	2021-11-22T12:26:26+01:00	In favor
comment_157873	134773	None	El primer derecho por el que luchar, es el derecho a la vida de todas las personas, por supuesto a las personas con Síndrome Down. Después por el derecho a que reciban estimulación temprana de calidad, educación adaptada a cada persona, al desarrollo personal, al acceso a la cultura y al ocio. Y a la inserción laboral. Mucho trabajo tenemos por delante.	0.0	comment_157873	True	0	0	ValuesRights	es	2021-11-24T00:25:58+01:00	In favor
comment_158271	134773	None	"MUCHAS GRACIAS POR ESTE ESPACIO!
lo más importante y en primer lugar es EL DERECHO A LA VIDA DE ESTOS NIÑOS. Tu tipificación como causa legal de aborto debería ser revisada por todos los ordenamiento jurídicos.
Apoyo a los sanitarios para informar y acompañar a las familias! 
inclusión de todas las personas con sindrome de down en una vida digna en cualquier sociedad (trabajo, educación)...FUTURO!"	0.0	comment_158271	True	1	0	ValuesRights	es	2021-11-24T11:21:24+01:00	In favor
comment_164275	134773	None	Las personas con Sindrome de Down como ciudadanas europeas, merecen las mismas oportunidades y la misma consideración y respeto que las demás personas. La UE debe ser un espacio de libertad y de derechos para todos, sabiendo valorar la riqueza que aportan las personas con síndrome de down a la sociedad. 	0.0	comment_164275	True	0	0	ValuesRights	es	2021-11-30T00:24:08+01:00	In favor
comment_167213	134773	None	Queremos que las mujeres con Síndrome de Down dejen de sufrir doble discriminación. Por ser mujeres y por tener discapacidad. 	0.0	comment_167213	True	0	0	ValuesRights	es	2021-12-02T11:40:22+01:00	In favor
comment_63071	4496	None	"Por lo menos el derecho a una vivienda se resolvería simplemente con la correcta valoración administrativa: a cada salario corresponde una vivienda.
Como resolver de una vez el problema de la vivienda.#comment_55689"	0.0	comment_63071	True	0	0	ValuesRights	es	2021-07-27T18:33:12+02:00	Other
comment_123619	199	None	"Yo pienso que ya no se puede controlar a la prensa: ahora son todas agencias de márquetin y de compra-venta de intereses comerciales.
Únicamente podemos incentivar constantemente a la creación de nuevos medios digitales, evitar que se les silencie en internet y obligar,  a todos, a informar transparentemente a que intereses económicos obedecen."	0.0	comment_123619	True	0	0	ValuesRights	es	2021-10-22T11:23:10+02:00	Other
comment_180016	189355	None	Apuesto por una Europa que respeta la vida humana desde la concepción hasta la muerte natural.	0.0	comment_180016	True	1	0	ValuesRights	es	2021-12-21T17:21:00+01:00	In favor
comment_180017	189355	None	Los Estados miembros han de hacer lo posible por construir una cultura de la vida, promoviendo leyes y estructuras sociales que faciliten a las personas el acceso a los bienes básicos para vivir con dignidad y desarrollar todo su potencial humano. 	0.0	comment_180017	True	1	0	ValuesRights	es	2021-12-21T17:26:16+01:00	In favor
comment_148568	152329	None	La defensa de la vida desde la Concepción hasta la muerte natural es una de las princípiales características de las sociedades occidentales . La protección de la vida es demandada por miles de personas en Europa 	0.0		False	28	1	ValuesRights	es	2021-11-16T10:18:33+01:00	In favor
comment_168532	152329	None	Los principales valores en los que se basa la Unión están consagrados en el artículo 2 del Tratado de la Unión Europea y el primero de ellos es el respeto a la dignidad humana. Si  este valor es prioritario para Europa y sus ciudadanos, solo podemos tener un futuro respetuoso con esos valores reconociendo la dignidad de cada ser humano sin excluir a ninguno de ellos por su desarrollo o condición. La exclusión de esta dignidad humana nos lleva a la barbarie. 	0.0	comment_168532	True	5	0	ValuesRights	es	2021-12-03T10:07:21+01:00	In favor
comment_173350	152329	None	"El DERECHO A LA VIDA es un derecho fundamental de todo SER HUMANO, tenga o no la condición jurídica de persona. La ciencia acredita, de manera indubitada en la actualidad, que la vida comienza con la concepción, en la que se genera un nuevo ser humano, un ""tertium existencial"" distinto de la madre, con una carga genética propia e irrepetible, diferente de la del padre y la madre. Esa vida merece ser protegida dado su valor y dignidad inviolables."	0.0	comment_173350	True	0	0	ValuesRights	es	2021-12-09T06:52:51+01:00	In favor
comment_228133	152329	None	Algún día, espero que no muy lejano, Europa mirará con horror el haber considerado que la vida prenatal no merece ser protegida. Decía Lejeune que, desde el punto de vista científico, es incontestable que hay vida humana desde el momento de la concepción. No demos la batalla por perdida. Demos voz a quienes no la tienen. Apoyemos a la mujer y protejamos la vida. El aborto no es la solución y mucho menos, un derecho humano. 	0.0	comment_228133	True	0	0	ValuesRights	es	2022-02-20T23:21:48+01:00	In favor
comment_124411	128800	None	Muchas gracias José María por presentar esta propuesta. Es fundamental que Europa se interese, conozca e intervenga la justicia #politizada y corrupta del régimen #Borbónico. 	0.0		False	0	0	ValuesRights	es	2021-10-23T03:38:20+02:00	In favor
comment_240340	245785	None	propuesta muy necesaria para construir una Europa diversa pero cohesionada	0.0	comment_240340	True	0	0	ValuesRights	es	2022-03-12T10:58:09+01:00	In favor
comment_18877	439	None	Quizás sería interesante probar antes emitiendo un programa de noticias europeo en las televisiones públicas (aparte del que haya en su país) traducido o subtitulado con noticias de interés a nivel europeo.  El problema sería ver la diferencia con los nacionales y los intereses a los que sirven. ¿ quién decidiría el contenido? En mi país puedes saber a qué partido político apoyan sólo con ver los titulares. ¿Sería posible un noticiero objetivo sobre la ue? ¿o acabarían primando los intereses de x país o x dirigente? No es una cuestión fácil, y delimitar los intereses a los que servirían tampoco. Pero sería interesante hacer la prueba.	0.0	comment_18877	True	0	0	ValuesRights	es	2021-05-25T12:57:02+02:00	Other
comment_233708	265552	None	"La UE necesita un mejor aprendizaje de idiomas 
The EU needs improved language learning ?locale=es "	0.0	comment_233708	True	0	0	ValuesRights	es	2022-02-24T10:39:59+01:00	In favor
comment_229450	254369	None	Es injusto y un agravio comparativo  que sigan bloqueando el acceso del catalàn como lengua oficial. No puedo entender que la EU consienta esta situación 	0.0	comment_229450	True	0	0	ValuesRights	es	2022-02-21T11:59:57+01:00	In favor
comment_229517	254369	None	"Los idiomas en la UE han de ser representativos de sus habitantes.
El Català no está reconocido pese a ser mucho más hablado que otros. Esto se denomina: discriminación."	0.0	comment_229517	True	0	0	ValuesRights	es	2022-02-21T12:30:17+01:00	In favor
comment_92633	94612	None	Apoyo la importancia de la presencia en Europa de la sociedad civil y el desarrollo de una comunidad de valores democráticos, así como elaborar el camino para alcanzar una autentica federación europea. 	0.0	comment_92633	True	0	0	ValuesRights	es	2021-09-16T12:03:15+02:00	Other
comment_158436	159920	None	Buscamos garantizar que las personas con Trisomia 21 tengan los mismos derechos que cualquier otra persona.	0.0	comment_158436	True	0	0	ValuesRights	es	2021-11-24T13:33:07+01:00	In favor
comment_15445	1523	None	"Hola,
Es una idea interesante y me alegro de que hayas decidido expresarla en tu proprio idioma.  A mi me parece que aunque ya se consigua saber más o menos lo que dicen los que no hablan nuestro idioma utilizando DeepL y otras herramientas similares, la comunicación auténtica requiere competencias que éstas no poseen, competencias emocionales sin las cuales hablar por hablar no tiene mucho sentido.    "	0.0	comment_15445	True	0	0	Digital	es	2021-05-19T16:32:49+02:00	Against
comment_122662	127879	None	Es esencial también en ese mundo virtual el crear los colegios integrados y los vecindarios integrados, porque esto con 1/4 de los hogares españoles unifamiliares la mayoría ancianos solos y pisos compartidos no se está dando y la cifra según el CIS es gravísima. Yo vivo la marginación que a veces es por mor de la racionalidad y no discriminación en primera persona. Pero dado que todos podemos rehacer una vida correcta si leéis mi propuesta sobre vivienda todos en renta de alquiler 3d impresora constructora estatal  con un cajón para comprar la vivienda... os daréis cuenta de que desde la virtualidad la geografía Europea se me antoja limitada en inspiración. en forma de araña alargando los tentáculos para que haya playa el mundo virtual tiene que hacer encuestas sociológico votar si o no a fotografías de gente ideal para convivir junta...los más seres queridos... y hacer el distrito zehn, el distrito Gaudi, el distrito ochentero, el distrito Alhambra, el distrito diseño industrial, etc	0.0	comment_122662	True	0	0	Digital	es	2021-10-21T16:56:45+02:00	Other
comment_122695	127879	None	"Para esto trabajarían: en la descripción de las alternativas: profesionales de bellas artes ( 10%) historiadores de arte ( 30%) arquitectos ( 15%) sociólogos que hayan cursado sociología urbana ( 5%) jardineros ( 10%) biólogos botánicos ( 5%) profesionales del turismo ( 5%)  caminos canales y puertos ( 2%) decoradores 3otros ( 5%)
en el diseño de las alternativas....arquitectos ( 30%), jardineros ( 20%) fp imagen y sonido( 20%) diseñadores gráficos ( 30%).
La decoración de las viviendas supondría con inteligencia hidra 1.200 diseños del que primero el de mayor edad del núcleo familiar reduciría a la mitad y así sucesivamente."	0.0	comment_122695	True	0	0	Digital	es	2021-10-21T17:05:59+02:00	Other
comment_150019	139660	None	Un acceso cada vez más fácil a los medios digitales permite tambuién que nuevas formas de manifestación de las personas mayores puedan ser difundidas. La cantidad de población mayor esw cada vez más grande, por tanto es un segmento de la población que puede contribuir con ideas, propuestas y soluciones con base en su gran experiencia y sabiduría, las cuales son muy necesarias hoy en dia cuando la velocidad de la aparición y dominio de nuevas tecnologías no da tiempo para reflexionar sobre los valores humanos involucrados en cada una de esas nuevas tecnologías.	0.0	comment_150019	True	0	0	Digital	es	2021-11-17T12:59:50+01:00	In favor
comment_151010	155596	None	Y no sólo eso como sustituto a las becas de residencia transporte gratis y residencias universitarias gratis. estoy pensando en la línea vigo/ pontevedra/ villagacia/ padrón/santiago///// santiago/ la coruña/ ferrol...con todos los autobuses posibles...y las residencias gratis en comida y cama para los de mejores notas.. dejo en pie un distrito único en la futura lengua única europea sea el inglés ( con esto se aprovecharía el actual capital humano) o el esperanto ( con esta se partiría del mismo nivel: profesores, locutores etc) y una Europa con histórica inversión en residencias de FP y universitarias con conferencias, competiciones de trivial, tenis, ajedrez etc ( ejemplo: La residencia de estudiantes de Madrid en el segundo cuarto del SXX). Mientras esa lengua no se aprenda nos quedará rogar por 20% de plazas online con 30% para minusválidos en esta modalidad con este mismo programa. Yo espero una universidad gratuita incluidos idiomas y posgrados y un FP y Escuelas de idiomas tamb	0.0	comment_151010	True	0	0	Digital	es	2021-11-18T09:29:48+01:00	Other
comment_130294	136754	None	Propongo también que en la integración de vecindarios: amigos, familiares etc.... estén también amores, amistades del pasado o incluso fenecidos según tal y como los recordamos en nuestra memoria. Mucha gente ha tenido una bonita historia de amor y la ha dejado pasar comiéndose ahora las uñas. Y ha tenido amigos que la han querido y los ha perdido todo en la vida por culpa de un dios injusto y a veces diabólico... 	0.0	comment_130294	True	0	0	Digital	es	2021-10-29T19:41:40+02:00	In favor
comment_142066	136754	None	"También para componer vecindarios integrados se podría una vez que avance la computación ""inventar"" a gente de nuestro pasado según nuestra memoria y no estoy hablando solamente de gente mayor a la que se le han muerto todos... y posiblemente ""reproducirnos"" a nosotros mismos con la memoria que teníamos entonces pero para la vida en rosa en este magnifico sistema con  control mental que no conoce la palabra desamor, fracaso laboral o familiar o simplemente fracaso. "	0.0	comment_142066	True	0	0	Digital	es	2021-11-10T19:11:56+01:00	In favor
comment_132826	138238	None	"Para eso los formados tendrían que ser psicólogos y con un master en relaciones de pareja. Para monitorizar las relaciones y evitar que se esfumen y a la vez dar guía y consejo: enarcar las cejas al hablar, acompasar al otro al andar, coger el teléfono si es posible al 4º  toque, sonreír. cruzar las piernas hacia el lado de la pareja, etc. 
Y respecto a la relación: Parecer inteligente, tener buena y pulcra apariencia, imitar ciertas actitudes de la pareja etc.
No se mucho más sólo que los psicólogos deben educar en conformismo en la hora del amor y rechazar el autoerotismo con otras personas para que la pareja pueda concentrarse en su felicidad y también después de la cita el programa de ordenador debería hacerles algunas preguntas con el fin de crear anécdotas graciosas o unificadoras que hagan al factor intimidad unir más a la pareja. "	0.0	comment_132826	True	0	0	Digital	es	2021-11-03T04:54:19+01:00	In favor
comment_187045	206614	None	"Totalmente de acuerdo..!!!
Si quieres puedes colaborar con la Convencion de ciudadanos que esta debatiendo la Constitucion de la futura Union Europea Federal.
Aqui el enlace:
https://www.faef.eu/fr/citizens-convention/
Si quieres puedes participar mandando tus propuestas a la Convencion a este Email:
citizensconvention@faef.eu
Cordiales saludos federales
Javier Giner
javier@faef.eu"	0.0	comment_187045	True	0	0	Democracy	es	2022-01-07T17:50:26+01:00	In favor
comment_143754	148996	None	"Buena idea Adriana, 
Te dejo aqui informacion que nos llega del Parlamento Europeo. A traves del siguiente enlace encontraras todo lo que hay hasta la fecha sobre tu motivacion para los alumnos.
Inteligencia artificial: enorme potencial si se abordan los riesgos éticos
https://www.europarl.europa.eu/news/en/press-room/20211107IPR16805/artificial-intelligence-huge-potential-if-ethical-risks-are-addressed
Si es posible puedes pasar informacion sobre nuestra Federacion FAEF que  esta debatiendo con la Convencion Ciudadana sobre la Constitucion para la Union Europea Federal.
FAEF os invita a Participar en la Convencion de Ciudadanos:
https://www.faef.eu/es/citizens-convention/
o directamente al foro de la Convencion:
https://www.faef.eu/es/discussion-forum/
Tambien se debate sobre la Democracia Directa:
https://www.faef.eu/es/forums/topic/1-introduciendo-la-democracia-directa/
Animate y participa escribiendo a la Convencion de Ciudadanos:
citizensconvention@faef."	0.0	comment_143754	True	0	0	Democracy	es	2021-11-11T23:32:42+01:00	Other
comment_179917	184573	None	Desde luego, todo apoyo a la familia es poco. Es importante que la Unión Europea se tome en serio el invierno demográfico ya y adopte medidas que permitan a quién lo desee, fundar una familia, sin cortapisas profesionales y sin centrarse exclusivamente en las políticas de discriminación positiva de la mujer, que en última instancia, acaban por generar una situación en la que se ponen en entredicho las capacidades reales de las mujeres que ocupan puestos de responsabilidad. 	0.0	comment_179917	True	1	0	Democracy	es	2021-12-21T13:46:38+01:00	Other
comment_180247	184573	None	Es necesario proteger a la familia como elemento indispensable de la civilización, y como primera escuela de tolerancia, solidaridad y trabajo por un bien común. Se puede imaginar alguien una Europa sin familias? Inténtenlo.	0.0	comment_180247	True	0	0	Democracy	es	2021-12-23T11:40:02+01:00	In favor
comment_149294	153814	None	"Tienes razon Eszter.  Mira si puedes participar en nuestro proyecto de Constitucion para la Union Europea Federal
Actualmente sigo trabajando desde la Federacion FAEF que ha convocado una Convencion de ciudadanos para debatir y ratificar la futura Constitucion de la Union Europea Federal
https://www.faef.eu/it/citizens-convention/
Tambien te invitamos a un evento que tenemos programado en este enlace:
https://futureu.europa.eu/processes/EUInTheWorld/f/17/meetings/70655
Asi mismo te invitamos a que participes en un Chat de Telegram
https://t.me/joinchat/J3AOCJCxA1MwMzY0
Con enlace para la traduccion simultanea de Telegram
https://t.me/traduciendobot
cordiales saludos federales
Javier Giner
miembro de la Junta Directiva FAEF
https://www.faef.eu/"	0.0	comment_149294	True	0	0	Democracy	es	2021-11-16T17:51:56+01:00	In favor
comment_134180	137135	None	"Solo cuando la UE sea una federacion tendran los Estados miembros la seguridad que tienen una buena defensa, porque uno de los asuntos de la Federacion es proteger a los estados miembros. Pero en la UE como no hay gobierno federal...pues cada Estado hace lo que quiere.
Te invito que mires nuestra Convencion de Ciudaanos a ver si quieres colabora en la creacion de la Union Europa Federal. Aqui el enlace:
https://www.faef.eu/en_gb/citizens-convention/"	0.0	comment_134180	True	0	0	Democracy	es	2021-11-03T19:35:36+01:00	Other
comment_91246	983	None	"Estoy  en total desacuerdo con las ideas de Peter Bouwmann. Si el gobierno holandés está en contra de una unión cada vez más estrecha entre los ciudadanos de Europa, está actuando directamente en contra del Tratado de la UE. Está actuando de forma anticonstitucional.  Y las constituciones se respetan o se cambian, Pero mientras no se camben se deben respetar.
Estoy  de acuerdo en que vamos hacia una Unión Europea de varias velocidades, pero yo digo ""felizmente"" no desgraciadamente. Si Nederland quiere quedar estancada, pues que siga, pero que no impida a otros países avanzar hacia una mayor integración.
Otra barbaridad que he oído del señor Bouwmann es que ""los últimos años Europa ha avanzado hacia una mayor integración porque se ha apartado de la democracia"".  La integración europea no ha avanzado en los últimos 20 años, precisamente por no  respetar el Tratado UE, por no  tener en cuenta a los ciudadanos  y por haber utilizado de manera nacionalista el principio de subsidiaridad. "	0.0		False	0	0	Democracy	es	2021-09-14T19:34:07+02:00	Other
comment_149261	125896	None	Totalmente de acuerdo. Veo muy difícil en principio crear una nueva lengua. El Esperanto ya ha demostrado su magnífica capacidad.	0.0	comment_149261	True	1	0	Democracy	es	2021-11-16T17:43:42+01:00	In favor
comment_22739	17623	None	Ah, y creo que por mayoría calificada ya estaría bien.	0.0	comment_22739	True	0	0	Democracy	es	2021-05-29T10:51:48+02:00	In favor
comment_47827	1997	None	Totalmente de acuerdo, no puede haber democracia en Europa, si para ser funcionario europeo, si para poder hacer negocios en toda Europa, si para poder hacer turismo en toda Europa es necesario dominar el idioma del único país que ha abandonado la Unión Europea, el inglés.	0.0	comment_47827	True	3	0	Democracy	es	2021-07-02T19:49:47+02:00	In favor
comment_47851	1997	None	Como irlandés, estoy totalment de acuerdo con Usted.  	0.0	comment_47851	True	3	0	Democracy	es	2021-07-02T20:03:39+02:00	In favor
comment_147775	152495	None	"Excelente idea Alvaro, pero tenemso que ir mas lejos con una Europa Federal
La UE está sometida a una presión creciente por los conflictos. Y geopolíticamente la UE carece de sentido. La Alianza Federal de Federalistas Europeos quiere hacer un nuevo intento de sustituir el sistema de funcionamiento antidemocrático e ineficaz de la UE, basado en tratados, por una Europa federal firmemente democrática y de funcionamiento eficaz.
FAEF os invita a Participar en la Convencion de Ciudadanos:
https://www.faef.eu/es/citizens-convention/
o directamente al foro de la Convencion:
https://www.faef.eu/es/discussion-forum/
Tambien se debate sobre la Democracia Directa:
https://www.faef.eu/es/forums/topic/1-introduciendo-la-democracia-directa/
Animate y participa escribiendo a la Convencion de Ciudadanos:
citizensconvention@faef.eu
1957> Mercado Comun > Comunidad Economica Europea> Europa Union > Union Europea Federal >  a partir mayo 2022
…........................................."	0.0	comment_147775	True	0	0	Democracy	es	2021-11-15T17:24:06+01:00	Other
comment_3094	55	None	NO creo hagan falta listas transnacionales. Me parece suficiente con obligar a que los grupos políticos que aspiren a formar parte del parlamento europeo se conformen oficialmente antes de las elecciones europeas y presenten durante las mismas, tanto su programa como su candidato a presidente de la Comisión Europea (gobierno de la UE). Ese candidato debe ser respaldado por los jefes de estado que integren ese grupo politico, pues deben apoyarlo en el Consejo Europeo (Consejo de Jefes de estado ó de gobierno de la UE) dado que el Consejo Europeo también participa en la elección del Presidente de la Comisión Europea. 	0.0		False	0	1	Democracy	es	2021-05-06T22:34:17+02:00	Against
comment_50036	31220	None	"En el área de Salud, como la pandemia de Covid-19 ha puesto de relieve, por más que los Estados miembros acumulen competencias en la materia es imposible hacer frente a una situación de crisis de esa magnitud si no es estando unidos y a nivel europeo.
En asuntos exteriores, no disfrutar de una auténtica política exterior europea debilita la acción global de la Unión, una Unión esta la nuestra que nos representa en foros como el G7 en el que no participan directamente sino a través de ella los Estados miembros medianos y pequeños. 
Creo que es preferible transferir más competencias a la Unión en aquellas políticas en las que su intervención aporte valor añadido (gobierno multinivel perfectamente definido). Transferir competencias (soberanía) a la Unión tiene muchas ventajas entre otras permite que quede algo de soberanía nacional que proteger en un mundo globalizado y polarizado como el actual."	0.0		False	1	0	Democracy	es	2021-07-05T19:50:07+02:00	In favor
comment_143618	148965	None	"La ICE funciona mal porque la UE no es democratica. Por tanto bien tendremos que transformar la UE en la Union Europea Federal Con mucho gusto les invitamos a tomar parte del desarrollo de los trabajos de la Convencion Ciudadana que esta debatiendo para ratificar al final de mayo 2022 una Constitucion para la Union Europea Federal
Porque la Union Europea está cada vez más presionado por los conflictos.Geopolíticamente, la UE no tiene sentido. La Alianza Federal de Federalistas Europeos quiere hacer un nuevo intento de reemplazar el sistema operativo antidemocrático e ineficaz basado en tratados de la UE por una Europa federal firmemente democrática y eficaz.
Aqui les dejo el enlace :
https://www.faef.eu/engb/citizens-convention/
En este link donde se debate la introduccion de la Democracia Directa:
https://www.faef.eu/engb/forums/topic/1-introduciendo-la-democracia-directa/
o participar con sus aportaciones al siguiente Email:                           citizensconvention@faef.eu"	0.0	comment_143618	True	0	0	Democracy	es	2021-11-11T19:19:54+01:00	In favor
comment_141472	145499	None	"Hola Amparo, te felicito por la estupenda idea de introducir el tema de la Democracia Directa. Yo he estado muchos años  en Suiza y siempre me interesó mucho porque alli con el sistema politicio los ciudadanos participan al menos 4 veces al año en referendums que ratifican propuestas de Ley o bien ratifican las leyes que ha aprobado el parlamento.
Dejo aqui mi aprendizaje sobre la Democracia Directa porque la Union Europea Federal necesita cambiar de sistema politico. En los ultimos años hemos visto como los politicos en la Union Europea no han sabido estar a la altura de las circunstancias y por tanto en vez de resolver los problemas y demandas de los nuevos tiempos se ha llegado a un punto de inflexion en las Instituciones de la UE : Comision, Parlamento Europeo y el Consejo UE 
Los ciudadanos deben decidir con Democracia Directa, porque solo asi los politicos acturan en consecuencia
https://documentcloud.adobe.com/link/track?uri=urn:aaid:scds:US:5fbcf7a5-c3f9-4158-b664-b064f3c625de"	0.0	comment_141472	True	0	0	Democracy	es	2021-11-10T13:52:04+01:00	In favor
comment_226250	255850	None	Cataluña está desprotegida frente a  España, no tenemos democracia tenemos dictadura, nos impiden hablar en catalán, nos imponen mas impuestos que al resto del país, nos desprecian en muchos ámbitos.	0.0	comment_226250	True	0	0	Democracy	es	2022-02-20T12:37:30+01:00	In favor
comment_219055	248887	None	El objetivo de esta propuesta es legitimar un movimiento supremacista y xenófobo que pretende sojuzgar a más de la mitad de la población de Cataluña y otras regiones de España, con la excusa de un relato falseado de la historia de España y otras milongas. Espero que la UE le dé a la propuesta el destino que merece, qué es el cubo de la basura.	0.0	comment_219055	True	1	6	Democracy	es	2022-02-17T13:42:03+01:00	Against
comment_220078	248887	None	"Finalmente,  todas las Minorias Nacionales, tendrán su espacio reconocido, en igualdad a los Estados centralitzados.
La Unió Europea ganará en pluralidad, al pasar de los 24 idiomas, y de los 27 miembros actuales, al sumar a Todos los qué ahora permanecen mudos e invisibles, como és el Caso de CATALUNYA."	0.0	comment_220078	True	0	0	Democracy	es	2022-02-17T20:27:22+01:00	In favor
comment_226513	248887	None	No se trata de adn ni carateristicas ni comparaciones. Se trata de una cultura e idioma creada a lo largo del tiempo (https://mobile.twitter.com/XaioTro/status/1408380521277804547/photo/1) y consolidada por las personas que la vivimos, compartimos, enriquecemos y amamos. Se trata de respeto y reconocimiento por algo que existe y lo seguirá haciendo por mucho tiempo.	0.0	comment_226513	True	0	0	Democracy	es	2022-02-20T14:11:00+01:00	In favor
comment_230409	248887	None	"jsatogelister 21/02/2022 19:00
¿La nación es el sujeto político contemporáneo? Eso suena decimonónico. En el S XXI el sujeto político es el conjunto de ciudadanos libres e iguales que viven en un Estado regido por una Constitución. Y, ¿qué es una nación? ¿Lo es Cataluña?; ¿por qué, en base a qué? ¿A un idioma propio que solo es la lengua materna del 33% de sus habitantes? ¿Una unidad política que nunca ha existido en la historia? ¿Una personalidad diferenciada? Personalidad la tienen casi todas las regiones españolas, la tiene Alicante, la tiene mi pueblo y mi barrio también. No veo materia suficiente para hacer saltar por los aires una unidad política con casi 500 años de existencia compartida."	0.0	comment_230409	True	0	1	Democracy	es	2022-02-21T19:16:33+01:00	Other
comment_231496	248887	None	"¡Hombre, hombre, Carles!, un poco de rigor histórico. De modo que Franco (siempre Franco en la boca) facilitó el movimiento de personas a Cataluña para que votaran en contra de los derechos de Cataluña. ¿Qué votos, qué derechos, había en época de Franco? ¿No será quizá que los andaluces, murcianos, etc. emigraron a Cataluña, debido al mayor desarrollo económico (este sí, favorecido por Franco) de esa región, respecto de la mayoría de las regiones españolas? Los emigrantes desempeñaron los trabajos que despreciaban los catalanes de pura cepa, se les insulta con el despectivo charnegos y, ahora, se les llama colonos y se les impide hablar su lengua materna en la escuela, en la Administración y, a veces, hasta en la consulta del médico.
Respecto del espíritu de las ideas de unos y otros, ¿qué espíritu anima ese concepto de inmigración indeseada? Da hasta miedo pensarlo, amigo Carles, pero esa idea está emparentada con los episodios más oscuros y sangrientos de la historia de la humanidad."	0.0	comment_231496	True	0	1	Democracy	es	2022-02-22T14:51:19+01:00	Other
comment_187078	205097	None	"Estimado Ortoli,
La Union Europea ya no tiene solucion porque el sistema intergubernamental ya no funciona. La Union Europea sera Federal y sino no habra Europa.
Aqui te dejo la Federacion FAEF que ha convocado una Convencion de Ciudadanos para una Constitucion para la futura Union Europea Federal.
Si quieres puedes colaborar con la Convencion de ciudadanos que esta debatiendo la Constitucion de la futura Union Europea Federal.
Aqui el enlace:
https://www.faef.eu/fr/citizens-convention/
Si quieres puedes participar mandando tus propuestas a la Convencion a este Email:
citizensconvention@faef.eu
Cordiales saludos federales
Javier Giner
javier@faef.eu"	0.0	comment_187078	True	0	0	Democracy	es	2022-01-07T18:11:20+01:00	Other
comment_101377	590	None	"Democracia significa que el pueblo gobierna. Esto solo es posible organizando la representación del pueblo. Hacemos esto votando por representantes del pueblo. Dos palabras importantes juegan un papel en esto: esperanza y felicidad. Los representantes del pueblo tienen una sola tarea: ayudar al pueblo a ser feliz. Y la gente espera elegir a las personas adecuadas para hacer esto.
El siguiente enlace
https://www.faef.eu/wp-content/uploads/Call-English-28July2021.pdf
es un proyecto que pude transformar Europa"	0.0	comment_101377	True	0	0	Democracy	es	2021-09-28T18:30:41+02:00	Other
comment_195988	6571	None	"Buena idea..!!! 
Pero para ello necesitamos una federaicon europea con una Constitucion Federal
Es lo que estamos haciendo en FAEF (Federation Alliance of European Federalists) con la Convencion de Ciudadanos que debate una Constitucion para la futura Union Europea Federal.
Participa..!!
https://www.faef.eu/en/citizens-convention/
Ademas esta previsto la introduccion de la Democracia Directa. Ver el siguiente enlace:
https://documentcloud.adobe.com/link/review?uri=urn:aaid:scds:US:00d1b30a-2b19-313a-9c2e-d606af60290f
Os invitamos a participar en la Convencion a traves de este Email:
citizensconvention@faef.eu
Saludos federales
Javier Giner
javier@faef.eu"	0.0	comment_195988	True	0	0	Democracy	es	2022-01-25T11:47:40+01:00	Other
comment_143619	527	None	"Hola Pietro,  totalmente de acuerdo contigo, necesitamos mas Europa
He pensado que podria interesarte colaborar con el proyecto actual de una Constitucion Federal para la Union Europea desarrrollado por la FAEF (Federacion Alliance European Federalists)
Con mucho gusto les invitamos a tomar parte del desarrollo de los trabajos de la Convencion Ciudadana que esta debatiendo para ratificar al final de mayo 2022 una Constitucion para la Union Europea Federal.  Aqui les dejo el enlace :
https://www.faef.eu/en_gb/citizens-convention/
Porque la Union Europea está cada vez más presionado por los conflictos. Y geopolíticamente, la UE no tiene sentido. La Alianza Federal de Federalistas Europeos quiere hacer un nuevo intento de reemplazar el sistema operativo antidemocrático e ineficaz basado en tratados de la UE por una Europa federal firmemente democrática y eficaz.
Y estamos debatiendo sobre la Democracia Directa
https://www.faef.eu/en_gb/forums/topic/1-introduciendo-la-democracia-directa"	0.0	comment_143619	True	0	0	Democracy	es	2021-11-11T19:30:07+01:00	In favor
comment_156454	156949	None	"Para soportar ideas valientes como lo que una compañera dijo sobre la criollización o mi plan de migraciones internas para ""vivir"" y ""aprender"" una cultura hace falta el prometer un compromiso de marketing, que, obviamente no respete solo mis ideas sino otras como más autonomía para las naciones o el estado federal pero también otras que he escuchado aquí como la mera unión fiscal o de estado único de derecho que en nada me atañían en principio. para soportar mi idea propondría una página de arquitectura y decoración similar a homebyme basada en el curso: búsqueda de un estilo a la vivienda de aulafácil ( cultura: los estilos decorativos) y con otros añadidos... sería una página prueba donde cada uno podría hacer sus bocetos con muebles originales pero se especificaría que la página del Estado Europeo de aprobarse mi proyecto  abarcaría TODAS las empresas de decoración y mobiliario europeas como objetivo. "	0.0	comment_156454	True	0	0	Democracy	es	2021-11-23T09:28:09+01:00	In favor
comment_145201	150679	None	"Si. 
Desde los años 1940 los ""federalistas"" lo estan intentando pero no lo consiguen porque se dicen ser federalistas pero en los ultimos años ya no lo son. 
El federalismo permite a los Estados conservar sus tradiciones con sus peculiaridades como el idioma, la cultura, el folklore, etc. Justamente la UE hace lo contrario es decir todo en todos los paises miembros tiene  que ser similar y eso nos lleva a una interminable lista de crisis que no se arreglan sino que crecen cada dia mas y mas.
Por tanto es hora que la democracia enmpiece por los municipios de toda Europa, en las regiones, en los estados y solo la soberania que se ceda a la Federacion seran las competencias de una Federacion Europea.
En la federacion FAEF se trabaja con la Convencion de Ciudadanos para debatir la Constitucion y ratificar a finales de mayo 2022.  Aqui el enlace :
https://www.faef.eu/en_gb/citizens-convention/
que nos llevara a la Union Europea Federal
Javier Giner
https://www.faef.eu/"	0.0	comment_145201	True	0	0	Democracy	es	2021-11-13T14:19:32+01:00	In favor
comment_6246	3798	None	Añado sobre el Congreso. La elección de Diputados y Senadores serán mediante listas abiertas, de este modo los ciudadanos pueden elegir los candidatos que prefieren.	0.0	comment_6246	True	0	0	Democracy	es	2021-05-10T09:24:56+02:00	Other
comment_112069	152	None	"Yo tambien estoy de acuerdo que,
El objetivo debería ser una Europa federal.
Se necesita la fundacion de los Estados Unidos de Europa con una Constitucion Federal.
En la Federacion FAEF ha empezado la Convencion ciudadana que debatira y ratificara la constitucion Federal hasta finales de mayo 2022.
Aqui en este enlace se puede ver la apertura de la Convencion :
https://www.faef.eu/en_gb/citizens-convention-progress-report-3/
Ademas tenemos programado una Videoconferencia todos los domingos a las 13.00 horas para intercambiar opiniones sobre como hacer llegar las ideas e inquietudes de los ciudadanos.
Ver en este enlace mas informacion:
https://futureu.europa.eu/processes/Democracy/f/5/meetings/40690
J.Giner"	0.0	comment_112069	True	0	0	Democracy	es	2021-10-10T13:13:13+02:00	In favor
comment_198430	218165	None	Necesitamos un gobierno democrático de la unión no una oligarquía de presidentes y primeros ministros.	0.0		False	2	0	Democracy	es	2022-01-27T19:14:14+01:00	In favor
comment_152594	156751	None	¿Cómo no va a haber excepticismo si no se invierte un duro en un plan de marketing europeísta? a mi me gustaba la publicidad primera en los 90 de EEUU ( China) arrojando un papel al huerto de un país europeo y humillación luego venían las estrellas y los americanos lo recogían y pedían disculpas... unidos somos más fuertes, Europa grande y una, todos nacemos de una misma civilización y cultura, lo que nos identifica frente al resto del mundo el IDH y el orgullo de ser europeo... yo no soy experta en marketing ni he hecho un estudio de investigación de mercado para convencer a los votantes de Le Pen  pero sin un plan de marketing habrá euroescepticismo claro que si,	0.0	comment_152594	True	0	0	Democracy	es	2021-11-19T09:30:49+01:00	In favor
comment_44327	588	None	"Sería algo así como stackoverflow?
I see it more like an https://stackexchange.com/"	0.0		False	0	0	Democracy	es	2021-06-27T11:06:48+02:00	Other
comment_194866	221431	None	"Hola Iliana,
el federalismo precisamente es la forma de crear una unidad politica (Federacion) que pueda responder de forma global las necesidades de los Estados miembros que no puedan resolver. Los Estados miembros de la Federacion solo entregan la parte de soberania a la federacion que no puedan llevar a cabo ellos mismo. La Union Europea no tiene ningun poder politico en los foros mundiales. Es decir, cada Estado miembro tiene su politica exterior y eso es malo para los intereses de los ciudadanos europeos. 
Por tanto solo una Federacion puede garantizar mejor las tradiciones de cada Estado miembro: idioma, folklore, cultura, costumbres, etc (actualmente se pierden tradiciones..porque?)
La Union Europea en la actualidad en una Confederacion y cada Estado miembro tiene una politica exterior diferente.  Por tanto una Federacion defenderia mejor los intereses generales  la UE en los sectores clave de la Federacion. Los Estados miembros tendran sus propias leyes y políticas soberanas."	0.0	comment_194866	True	0	0	Democracy	es	2022-01-24T13:51:47+01:00	Other
comment_126754	128140	None	¿ Donde hacer negocio? Los ebooks se prestarían por 6 meses las  300 páginas y regla de tres... luego podrían comprarse por 1 euro las 100 páginas 12 calibri y regla de tres. y a precios de impresión * 1.40 más gastos de envío pero todo el capital cultural de los autores sería estadísticamente recomendado: o la paga única o vender ellos. estaría permitido reescribir los libros pero bloqueado el corta y pega. 	0.0	comment_126754	True	0	0	Education	es	2021-10-26T14:45:04+02:00	In favor
comment_137875	142594	None	A parte de esto, si el mundo estuviese de acuerdo que a lo mejor no lo está con hacer de Europa con emigración la nueva China, estamos a tiempo a crear nuevas universidades públicas delegadas a doctores para su dirección al igual que las empresas industriales que propongo hasta crear la competencia perfecta o el monopolio natural estatal subvencionando todos los costes (la competencia perfecta es la  posición de equilibrio no de exceso) que se creen serían otorgadas según un instituto de investigación microeconómico y sociológico comarcal o provincial no sólo a egresados universitarios de Administración de Empresas o Turismo sino a profesionales vinculados. Pero para que sea la posición de equilibrio con la masiva emigración debiese crearse por este instituto que acabo de inventar en sus posiciones jerárquicas europeas plazas en los centros universitarios según necesidad y no parados universitarios más.	0.0	comment_137875	True	0	0	Education	es	2021-11-07T12:24:44+01:00	In favor
comment_159953	163384	None	Además propongo que todas las notas de una misma enseñanza se suban de 0 a 0.5 por cada examen o examen seleccionado entre un grupo de exámenes no esquemático o matemático que se realice en una lengua diferente. por cada lengua diferente aunque sea cooficial  uno de estos pluses. 	0.0	comment_159953	True	0	0	Education	es	2021-11-25T12:54:30+01:00	Other
comment_133027	137752	None	Si, los padres tienen sus gastos y a veces son egoístas. Otras veces son pobres y extremadamente generosos pero se sienten impotentes. 	0.0	comment_133027	True	0	0	Education	es	2021-11-03T11:46:37+01:00	Other
comment_152825	155069	None	Creo que es imprescindible que en nuestros jóvenes nazca (o crezca) el amor por una Europa común, vista como un conjunto de pueblos que desean ayudarse para construir un mundo mejor. Y con un mundo mejor no me refiero solo al plano económico, sino a todos los niveles: un mundo en el que los derechos humanos, especialmente los derechos de los más vulnerables, la justicia social, la diversidad en su más amplia acepción, la ciencia, el arte en todas sus formas, las lenguas tanto mayoritarias como minoritarias, la promoción de formas de vivir más sostenibles como parte de la lucha por el cambio climático, el progreso en definitiva, sean defendidos hasta sus últimas consecuencias. Pero no se puede amar plenamente lo que no se conoce. 	0.0	comment_152825	True	1	0	Education	es	2021-11-19T11:13:28+01:00	In favor
comment_32183	23893	None	"[Parte 3 de la traducción al español]
Los ciudadanos piden a la UE que anime a los Ministerios de Educación de los 27 países de la UE a reproducir este programa escolar, bajo supervisión pedagógica profesional, y a mayor escala, para probar la eficacia de este enfoque innovador, que tiene el potencial de revolucionar el aprendizaje de idiomas en toda la EU-27."	0.0	comment_32183	True	13	0	Education	es	2021-06-10T00:58:57+02:00	In favor
comment_47889	23893	None	Totalmente de acuerdo. El éxito de ese programa debe impulsar su realización  a gran escala, en todas las escuelas de Europa, y no sólo en primaria, sino también en secundaria, bachillerato e incluso en la universidad.	0.0	comment_47889	True	11	0	Education	es	2021-07-02T20:51:07+02:00	In favor
comment_110716	112267	None	¡Toda la razón! Es fundamental llevar al centro de la política cultural europea la protección de la libertad de expresión y especialmente la libertad de expresión artística. España en concreto es el primer país del Norte global en número de sentencias contra la libertad de expresión artística, un honor dudoso que conviene revertir a través de una política cultural que ponga en el centro los derechos humanos.	0.0	comment_110716	True	0	0	Education	es	2021-10-08T15:54:12+02:00	In favor
comment_134383	140152	None	cuando hablo de prohibir la venta de  viviendas excepto  al erario público me explico: poner todo en alquiler hasta que con lo entregado al alquiler en una mochila se pueda tener derecho a una vivienda en propiedad-	0.0	comment_134383	True	0	0	Education	es	2021-11-04T08:06:49+01:00	Other
comment_130120	136621	None	David me parece una fantástica propuesta a tener en cuenta en las políticas a impulsar desde la UE. El conocimiento de otras lenguas enriquece y protege la diversidad, así como enaltece la cultura e idiosincrasia de los pueblos que conforman la UE. La zonas, ciudades, regiones transfronterizas deberían siempre favorecer este intercambio, pues son ejemplo de convivencia, respeto y comunicación.  Ojalá sea una oportunidad que en breve podamos disfrutar todos los gallegos y portugueses.	0.0	comment_130120	True	1	0	Education	es	2021-10-29T14:27:57+02:00	In favor
comment_136093	141440	None	"si se entiende así el Esperanto como lengua europea de la que partir de cero, luego los periodistas también tendrían que aprenderla... 705 televisiones europeas y ninguna nacional o local cada una con cultura europea por ley transnacional de la familia de partidos según escaño en el parlamento europeo... cada uno en cuestión de votos dividirá: series educativas para niños como barrio sesamo, operación triunfo todo el día, deportes todos hípica gimnasia rítmica, canódromo, moda y arte, etc estas tendrían que ser en esperanto subtituladas, al cabo de 10 años el idioma laboral debería ser el esperanto enseñado de manera distinta para todos según categoría laboral sólo una hora al día.
Por su parte, Europa aspira a ser más que un estado federal y aspira a mantener sus culturas; Magosto, Fiesta de los Mayos en Galicia etc.. pero odio que la cultura se transforme en una especie de derecho de cuna nobiliario..y excluyente...Europa aspira a ser una sola nación plurilingüe con una oferta televi"	0.0	comment_136093	True	0	0	Education	es	2021-11-05T14:20:02+01:00	Other
comment_137017	142066	None	LENGUA CULTURAL DE LA REGIÓN 4Hnota… se espera que con los tres previos años de lectura y alfabetización se sepa leer y escribir con claridad…. examen 40%  10% ejercicios de vocabulario 40 palabras a insertar en un texto, 10% traducción del idioma universal 40% comprensión lectora... responder a 8 preguntas en 800-1500 palabras cada uno en la lengua. 20% comprensión oral, 5 monólogo de exposición de un tema sin apoyo, 5% lectura de exposición de 2 temas,5%  5 preguntas medias de tº de la lengua 3% sintaxis  2% velocidad y corrección mecanográfica. trabajo en clase 60% de los cuales.... dictados 20% 2 ensayos sobre valores cívicos, derechos humanos y antropología 10% trabajos creativos sobre valores cívicos que hagan aprender la lección  10% trabajo en clase gramátical ( 1/4) de comprensión lectora ( 1/4) de vocabulario ( 1/4) y de sintaxis( 1/4) 10% libreta 5% taller literario 5%... además se incrementará de 0.1 a 0.6 el ensayo de 10 páginas sobre cualquier libro de ficción teatro o po	0.0	comment_137017	True	0	0	Education	es	2021-11-06T13:50:57+01:00	Other
comment_137050	142066	None	"1H LECTURA EN LENGUA CULTURAL. 
3H LENGUA MATERNA. DIFERENTES TECNICAS DESDE EL LATIN PARA IRLANDESES HASTA GALLEGO PARA PORTUGUEES
1H LECTURA EN LENGUA MATERNA.
3H CIENCIAS DE LA NATURALEZA. examen 70% de los cuales 35% 35 preguntas cortas en una palabra o frase, 20% dos preguntas largas 8% 4 preguntas medias. 5% colocar nombres en dibujo 2% enlazar, 20% trabajo en clase: fichas, 10% 4 ensayos de 5 páginas para casa con material aportado. 
2HCUADERNILLO PRÁCTICO Y EXPERIMENTAL DE CC DE LA NATURALEZA cuadernillo de actividades 60%, comportamiento y colaboración 40%
2H GEOGRAFÍA.
2H TURISMO LOCAL. 
8HCONOCIMIENTO DEL MEDIO Y CC SOCIALES
1H EDUCACIÓN FISICA E HIGIENEmejora o óptimo en constantes físicas 30%, destreza en clase 40%, higiene en clase 20% preguntas test ( 100) sobre higiene ( 50%) y ejercicio ( 30%) y dieta ( 20%) 10%
1H FÚTBOL.
1H AEROBIC
1H COSTURA A MANO. trabajos hechos en clase 70%, examen demostración 30%
TOTAL 50H"	0.0	comment_137050	True	0	0	Education	es	2021-11-06T14:07:06+01:00	Other
comment_137083	142066	None	"2º AÑO 9 AÑOS.
8H MATEMÁTICAS
4H ESPERANTO.
2H LECTURA ESPERANTO.
1H ORTOGRAFÍA EXPERANTO.
1H TÉCNICAS DE EXPRESIÓN ORAL.
4H LENGUA DE LA REGIÓN.
1H LECTURA EN LA LENGUA DE LA REGION.
3H LENGUA MATERNA.
1H LECTURA EN LENGUA MATERNA.
2H CUERPO HUMANO. Examen 70% mapas y nombres 20%, funciones enlazar 20%, preguntas cortas ( 40) 10%, preguntas test 40 10%, preguntas de resolver en un par de frases 10%.... Trabajo en clase…. Fichas 10% resumen de lo visto en los videos la vida es así 10%, ensayos de 3-4 páginas sobre cómo funciona cada uno de nuestros sistemas orgánicos 10%
2HCUADERNILLO PRÁCTICO Y EXPERIMENTAL DE CC DE LA NATURALEZAexamen 70%... Preguntas cortas 20 ( 20%) preguntas medias 5 ( 20%) pregunta larga 1 a elegir entre 2 ( 10%) comentario de texto 15%, mapa 3%  trabajo en clase…tener copiados en la libreta los textos explicatorios de la asignatura 5% comentarios de texto con texto pegado en la libreta : 5%  acierto en las preguntas de pensamiento desde una c
1H MECANOGRAFÍA."	0.0	comment_137083	True	0	0	Education	es	2021-11-06T14:16:32+01:00	Other
comment_137084	142066	None	"examen 70%... Preguntas cortas 20 ( 20%) preguntas medias 5 ( 20%) pregunta larga 1 a elegir entre 2 ( 10%) comentario de texto 15%, mapa 3%  trabajo en clase…tener copiados en la libreta los textos explicatorios de la asignatura 5% comentarios de texto con texto pegado en la libreta : 5%  acierto en las preguntas de pensamiento desde una clave funcional 5%, fichas 5%, ensayos 4 de 5 páginas con material aportado  10%
2HHISTÓRIA OCCIDENTAL PREHISTÓRICA  ANTIGUA Y CLÁSICA examen 70%... Preguntas cortas 20 ( 20%) preguntas medias 5 ( 20%) pregunta larga 1 a elegir entre 2 ( 10%) comentario de texto 15%, mapa 3%  trabajo en clase…tener copiados en la libreta los textos explicatorios de la asignatura 5% comentarios de texto con texto pegado en la libreta : 5%  acierto en las preguntas de pensamiento desde una clave funcional 5%, fichas 5%, ensayos 4 de 5 páginas con material aportado  10%
2HGÉNEROS ARTÍSTICOS E INTERPRETACIÓN DE LA PINTURA.
2H DECORACIÓN.
2H DIBUJO ARTÍSTICO "	0.0	comment_137084	True	0	0	Education	es	2021-11-06T14:20:50+01:00	Other
comment_137413	40	None	Soy una persona muy entusiasta de Europa. Me he emocionado mucho al ver que mis deseos europeístas son compartidos. Me he entusiasmado tanto que he redactado un currículum académico común para Europa bajo lo que habéis propuesto : Yo era partidaria del inglés pero se reconocer la luz. No ir a los comentarios al pinchar el nombre sino a la idea pues he expuesto el currículo en los comentarios. Pero más aún. creo que toda universidad y todo fp debería ofrecer 20% de sus plazas online con una cuota para europeos con reconocimiento facial como hace la universidad de Burgos  y examen y apuntes  en cualquier lengua bajo este mismo programa de esta página. Animo a echarle un ojo a mi currículo para toda Europa y que cualquiera de vosotros lo mejore y publique su versión. Gracias por hacerme feliz al saber que mis sentimientos europeistas sin tanto extremo como el mío pero que son compartidos	0.0	comment_137413	True	1	0	Education	es	2021-11-06T18:58:05+01:00	In favor
comment_20532	7559	None	Me parece muy interesante la propuesta.  Y citar a Finlandia es un acierto. Según tengo entendido no se fomenta la competencia entre alumnos, ni se separa por grupos según sus capacidades (algo que parece estar de moda).  Lo que hacen es fomentar que los que son mejores en algo, ayuden a los que  no son tan buenos.  Esto es un ejemplo para la vida, en la que nos vamos a encontrar de todo y tendremos que tener habilidades para convivir de la mejor forma posible. 	0.0	comment_20532	True	1	0	Education	es	2021-05-26T11:54:36+02:00	In favor
comment_110683	114874	None	Muy importante lo que plantea Amplify Portugal alrededor del cumplimiento, tal y como señala la UNESCO, del Estatuto del Artista a nivel mundial, poniendo la protección de las condiciones materiales de las personas creadoras en el centro de las políticas culturales europeas. Muy importante.	0.0	comment_110683	True	0	0	Education	es	2021-10-08T15:50:31+02:00	In favor
comment_8131	563	None	"Creo que esta medida es necesaria para garantizar una mayor sostenibilidad y autoabastecimiento. 
Ahora bien, los controles sanitarios impuestos a este tipo de productos es vital para garantizar la seguridad en su consumición. "	0.0	comment_8131	True	1	0	OtherIdeas	es	2021-05-11T04:34:00+02:00	In favor
comment_129229	127150	None	"Estimado Salvatore,
El tema de la moneda en Europa se ha quedado desfasada. En US cuando un Estado tiene problemas la federacion acude de inmediato para rescatar las finanzas del Estado en quiebra. Se hace de forma automatica porque tienen una constitucion Federal. Eso es lo que necesita Europa: Una Federacion de Estados europeos con una Cosntitucion Federal
La FAEF (Federal Alliance of European Federalists) ha empezado este proyecto convocando una Convencion de Ciudadanos para debatir y ratificar una Constitucion Federal para los Estados Unidos de Europa. Aqui el enlace de la Convencion:
https://www.faef.eu/en_gb/citizens-convention/
Tambien podemos hablar del tema en la proxima vidoconferencia que tenemos programada el proximo dia 30 de octubre a las 19.00 horas. Aqui esta el enlace del evento:
https://futureu.europa.eu/processes/EUInTheWorld/f/17/meetings/70655"	0.0	comment_129229	True	0	0	OtherIdeas	es	2021-10-28T19:25:02+02:00	Other
comment_210541	219914	None	STOP ANIMAL CRUELTY. ANIMAL RIGHTS. ABOLICIÓN TAUROMAQUIA. ABOLICIÓN CRUELDAD Y TORTURA HACIA LOS TOROS 	0.0	comment_210541	True	0	0	OtherIdeas	es	2022-02-11T20:50:29+01:00	In favor
comment_6014	5239	None	"A través de una plataforma de recogida de firmas http://chng.it/wYXj55nzj7  un grupo de ciudadanos españoles nos hemos unido para solicitar a la Unión Europea:
1La creación de normativa clara en respuesta al mandato Constitucional en relación con el acceso a la Función Pública, de forma que, de una parte, sea posible el trabajo temporal por motivos de urgencia demostrada, y por otra, que sea imposible conectar o vincular esos trabajos con la posibilidad de permanencia indefinida en la Administración. Si esto no se cierra herméticamente, y se deja alguna fisura, los políticos y los sindicatos volverán con toda seguridad a las andadas, y dentro de unas semanas ya habrá otros colectivos trabajando en la Administración sin haber opositado reclamando fijeza. 
2No permitir puntuación por años trabajados, porque el conocimiento adquirido durante los años de trabajo ya da ventajas suficientes a la hora de opositar y para cumplir disciplinadamente con el principio de igualdad de la Constitución"	0.0	comment_6014	True	0	0	OtherIdeas	es	2021-05-10T02:10:16+02:00	In favor
comment_14818	5239	None	Argumentan que se han visto perjudicados por parte de la administración (no voy a entrar en esto), es decir que la administración ha actuado mal. Y ésta es la justificación legal. Pues bien, así como las administraciones se defienden diciendo esto, siguen actuando de la misma manera. Es decir siguen haciendo exactamente el mismo tipo de contratación, es decir haciéndolo mal a sabiendas, y como no se exigen responsabilidades a los que lo permiten que yo sepa, la rueda sigue girando.	0.0		False	0	0	OtherIdeas	es	2021-05-18T16:06:27+02:00	In favor
comment_40699	5392	None	Todo mi apoyo al esperanto. Sin una lengua neutral, la democracia europea es un chiste que solamente los ignorantes que dirigen la Unión Europea pueden comprender.	0.0	comment_40699	True	5	0	OtherIdeas	es	2021-06-22T07:52:32+02:00	In favor
comment_30625	17955	None	Estu Esperanto lingvo instruata en lernejoj. Post kelkaj jaroj, la angla ne plu estos bezonata kaj vera kultura demokratio alvenos / Que el esperanto se enseñe en los colegios. Después de varios años, el inglés ya no será necesario y llegará una verdadera democracia cultural. 	0.0		False	10	0	OtherIdeas	es	2021-06-08T14:46:14+02:00	In favor
comment_73691	75439	None	Teniendo en cuenta los efectos secundarios de los insecticidas sobre la salud humana y animal, es necesario informar y educar a los ciudadanos sobre las especies beneficiosas (por ejemplo, enemigos naturales de las plagas de insectos) que deben protegerse, desde los jardines familiares hasta los agricultores, y de cómo promover su desarrollo en lugar de matarlos (por ejemplo, arañas de jardín, avispas y otros), con el fin de contribuir al control biológico de plagas desde el nuestros huertos domésticos hacia un esfuerzo global que debería tener un impacto positivo sobre la sostenibilidad de las prácticas agrícolas y la salud humana, reduciendo las aplicaciones de insecticidas en todo el mundo.	0.0	comment_73691	True	0	0	OtherIdeas	es	2021-08-16T16:05:09+02:00	In favor
comment_127384	130384	None	"Alimentar nutritivamente a nuestros hijos y a las personas limitadas económicamente. Estimulando el progreso, apoyando
la formación de micro empresas familiares. 
Eliminando hambre y la pobreza. 
Mediante un Sistema Circular Acuaponico."	0.0	comment_127384	True	0	0	OtherIdeas	es	2021-10-27T01:12:07+02:00	In favor
comment_16336	5399	None	Por el fin de tanta discriminación por nacionalidad y por renta que llevamos aguantando desde hace décadas, el inglés discrimina a los no nativos, y exige a las familias gastar mucho dinero en academias y cursos en el extranjero, lo cual beneficia injustamente a los países que tienen el inglés como lengua nativa, y en segundo lugar a los países que no tienen costumbre de doblar las películas a su propio idioma. Es una falta de sensibilidad imponer el idioma inglés como segundo o primer idioma en aviones, trenes, teatros, museos, y todo tipo de puestos de información a lo largo de toda la Unión Europea, discriminando claramente a los que no son anglosajones, irlandeses o malteses en primer lugar, y en segundo lugar a los que no son de países con idiomas más parecidos al inglés como los del norte de Europa. Es absolutamente intolerable la imposición del idioma inglés a no nativos para poder tener movilidad laboral o viajar en las mismas condiciones que Irlandeses o Malteses.	0.0	comment_16336	True	10	1	OtherIdeas	es	2021-05-20T15:47:23+02:00	Other
comment_49009	42110	None	"Por lo que se refiere a la lógica capitalista no es cuestión de desvincularse del capitalismo.
Al contrario, es simplemente asumir que el mercado de trabajo, los salarios y las rentas familiares, forman parte del juego capitalista.
No hay problema con el sistema."	0.0	comment_49009	True	0	0	OtherIdeas	es	2021-07-04T17:27:48+02:00	In favor
comment_55689	42110	None	"Bien, digamos que ya tienes el valor de la vivienda calculado a tu modo...¿Y qué impide que tu casero te siga cobrando mucho más?
Esto tendría sentido si se usara para calcular un impuesto que grave la propiedad evitando su uso especulativo. Como propongo aquí: Vivienda accesible, trabajo estable, movilidad asequible?locale=es
Véase también Georgismo - Georgism https://es.xcv.wiki/wiki/Georgism"	0.0	comment_55689	True	0	0	OtherIdeas	es	2021-07-13T21:17:52+02:00	Other
comment_55705	42110	None	"Hola Jesús,
estamos en un mercado libre y mi casero puede poner el precio que quiera, pero al declarar el importe cobrado, la administración tiene la posibilidad de aplicar impuestos sobre la diferencia entre el precio (ajustado a rentas familiares) calculado por capitalización de rentas y lo que ha cobrado al inquilino............ si la administración quiere.
El método propuesto es solo una herramienta que bien utilizada podría parar la especulación inmobiliaria a medio plazo.
Garantiza que para cada salario haya una vivienda.
Y cuando tu salario sea inferior del coste de la vivienda, ese es el momento en el que la administración intervendría financiando la parte de renta que hay que pagar y que tu no alcanzas con tu sueldo.
Estoy aquí para luchar por conseguir el cumplimiento del art. 47 de la Constitución, sé  que se puede y lo voy a pelear.
Un abrazo"	0.0	comment_55705	True	0	0	OtherIdeas	es	2021-07-13T22:09:47+02:00	Other
comment_129163	131110	None	"Salvatore, estoy totalmente de acuerdo con tu expresion:  ""una debilidad de la democracia representativa europea""
Pero me gustaria ir mas lejos con los ejemplos mas despotas que han ocurrido en las elecciones al Parlamento Europeo en 2019 que se eligio a dedo a Mme Von der Laien, cuando el mas votado fue el socialista holandes que deberia haber sido el Presidente de la Comision. Ya ves fue un acuerdo del mal funcionamiento de la UE que sigue siendo un mercado de sinverguenzas. En este caso  Macron-Merkel
Para que esto no vuelva a suceder necesitamos una Contitucion Federal para una federacion de Estados europeos.
La FAEF (Federal Alliance of European Federalists) ha empezado este proyecto convocando una Convencion de Ciudadanos para debatir y ratificar una Constitucion Federal para los Estados Unidos de Europa. Aqui el enlace de la Convencion:
https://www.faef.eu/en_gb/citizens-convention/"	0.0		False	0	0	OtherIdeas	es	2021-10-28T19:02:12+02:00	In favor
comment_19009	12447	None	Es necesaria una coordinación específica en materia de información geográfica. INSPIRE es una buena iniciativa, pero todavía hay muchas dudas y heterogeneidad en materia de información cartográfica de referencia, y una agencia transversal podría coordinar iniciativas relacionadas de una forma muy eficiente.	0.0	comment_19009	True	0	0	OtherIdeas	es	2021-05-25T13:40:15+02:00	In favor
comment_40626	13828	None	Totalmente de acuerdo/ Mi tute konsentas	0.0	comment_40626	True	6	0	OtherIdeas	es	2021-06-21T21:12:17+02:00	In favor
comment_211895	219915	None	"Respeto animal si y cumplimiento de normativa sobre experimentación animal.
Experimentación animal necesaria,y útil para los avances en ciencia."	0.0	comment_211895	True	0	0	OtherIdeas	es	2022-02-13T10:22:18+01:00	In favor
comment_213577	219915	None	"Por favor , ya es hora  de  parar cualquier tipo de  experimento con animales...en ningún caso está justificado.No entiendo como  algunos  científicos pueden hacerlo , solo les importa su ""ego""   ó  el dinero ,  no tienen  ética ni conciencia."	0.0	comment_213577	True	0	0	OtherIdeas	es	2022-02-14T13:02:40+01:00	In favor
comment_60557	55837	None	"2.- EN QUE PUNTO ESTAMOS
Lo que si existe en cambio, es una regulación hipotecaria y sus metodologías de la valoración de inmuebles que se aplican, convenientemente adaptadas por todas las administraciones.
La Orden ECO-805/2003.
La metodología de la valoración hipotecaria, en España, es óptima y vanguardista: un ejemplo único, desde la publicación del Real Decreto 775/1997, de 30 de mayo.
A partir de aquí hablaremos de los fallos del sistema:
La metodología actual para asignar valores de los inmuebles parte, a nuestro entender, de tres planteamientos, a estas alturas, muy discutibles que ponen en entredicho todo el procedimiento de valoración:"	0.0	comment_60557	True	0	0	OtherIdeas	es	2021-07-22T11:15:09+02:00	Other
comment_48425	41351	None	"Gracias Andreas,
es muy cierto que así no se puede seguir y tenemos que hacer propuestas fundadas y profesionales.
Ya no basta lamentarse."	0.0	comment_48425	True	0	0	OtherIdeas	es	2021-07-04T09:05:00+02:00	In favor
