id	id_prop	alignment	comment	depth	thread_id	last_comment_in_thread	upvote	downvote	Topic	lan	time
comment_44164	119	In favor	Agree 👍	0.0	comment_44164	True	4	0	Migration	hr	2021-06-25T19:20:04+02:00
comment_56968	1569	In favor	Ideja je izvrsna, i nadam se tehnološki dostupna. Bilo bi dobro kad bi i drugi prihvatili temelj vaše ideje, i počeli je ostvarivati jer nema drugog načina.	0.0	comment_56968	True	0	0	GreenDeal	hr	2021-07-16T08:18:17+02:00
comment_142495	134773	In favor	"Osobe sa Downovim sindromom (trisomijom na 21. kromosomu) ni po čemu ne smiju biti zakinute za svoje predstavnike u tijelima i ustanovama Europske unije koje donose odluke, preporuke, smjernice i direktive koje imaju izravan ili neizravan utjecaj na njihov život, rad i/ili slobodno djelovanje u društvu. Je li EU ""uključiva"" ako je gluha na potrebe i prava osoba s Downovim sindromom? Nema mjesta eugenici niti politici ""Untermenscha"". Osobe sa sindromom Down, kao i svi ostali državljani članica EU-a, imaju pravo na svoje predstavnike i na uključivanje u djelovanje europskih institucija. Provedite ""inkluzivnost"" u djelo, predstanite diskriminirati Europljane s trisomijom 21."	0.0		False	6	0	ValuesRights	hr	2021-11-11T01:33:10+01:00
comment_142528	134773	In favor	"Puna podrška inicijativi za uključivanje osoba s trisomijom 21 (Downovim sindromom) u europske institucije! Neka se čuje njihov glas!
Full support to the Initiative to include people with trisomia 21 in the European (EU) institutions! Let their voice be heard!"	0.0	comment_142528	True	6	0	ValuesRights	hr	2021-11-11T02:11:57+01:00
comment_187441	189355	In favor	"Podržavam inicijativu jer sva čovjekova prava proizlaze iz njegova neotuđiva dostojanstva. Svaki je čovjek jedinstveno biće, od začeća do prirodne smrti. Bez toga temelja nema vladavine prava u Europi.
English: I support the initiative because all man's rights derive from his inaudible dignity. Every human is a unique being, from conception to natural death. Without this foundation, there is no rule of law in Europe."	0.0	comment_187441	True	1	0	ValuesRights	hr	2022-01-08T17:52:22+01:00
comment_159523	152329	In favor	Prema preambuli Konvencije Ujedinjenih naroda o pravima djeteta: ”djetetu su, zbog svoje tjelesne i psihičke nezrelosti, potrebna jamstva i posebna skrb, uključujući odgovarajuću pravnu zaštitu, prije i nakon rođenja”.	0.0	comment_159523	True	14	0	ValuesRights	hr	2021-11-25T08:22:36+01:00
comment_195164	221135	In favor	👍👍👍	0.0	comment_195164	True	2	0	ValuesRights	hr	2022-01-24T22:27:16+01:00
comment_151043	143585	In favor	 👍 	0.0	comment_151043	True	1	0	Democracy	hr	2021-11-18T09:39:20+01:00
comment_149197	143586	In favor	 👍 	0.0	comment_149197	True	0	0	Democracy	hr	2021-11-16T17:01:13+01:00
comment_202720	234301	In favor	👍	0.0	comment_202720	True	0	0	Democracy	hr	2022-02-05T10:10:10+01:00
comment_84118	71248	In favor	👍	0.0	comment_84118	True	0	0	Education	hr	2021-09-03T09:25:14+02:00
comment_92835	71248	In favor	Pentru !👍	0.0	comment_92835	True	1	0	Education	hr	2021-09-16T14:33:30+02:00
comment_92897	71248	In favor	 👍 	0.0	comment_92897	True	0	0	Education	hr	2021-09-16T16:01:32+02:00
comment_93556	71248	In favor	Succes!👍	0.0	comment_93556	True	0	0	Education	hr	2021-09-16T23:12:46+02:00
comment_140848	2023	In favor	Vašeg sam mišljenja.	0.0	comment_140848	True	0	0	Education	hr	2021-11-09T15:55:49+01:00
